1,12:00:00
1,12:30:00
1,13:00:00
1,14:30:00
1,15:00:00
1,15:30:00
1,16:00:00
1,16:30:00
1,17:00:00
1,17:30:00
1,18:00:00
1,18:30:00
1,19:00:00
1,19:30:00
1,20:00:00
1,20:30:00
2,12:10:00
2,12:40:00
2,13:10:00
2,14:40:00
2,15:10:00
2,15:40:00
2,16:10:00
2,16:40:00
2,17:10:00
2,17:40:00
2,18:10:00
2,18:40:00
2,19:10:00
2,19:40:00
2,20:10:00
2,20:40:00
43,12:20:00
43,12:50:00
43,13:20:00
43,14:50:00
43,15:20:00
43,15:50:00
43,16:20:00
43,16:50:00
43,17:20:00
43,17:50:00
43,18:20:00
43,18:50:00
43,19:20:00
43,19:50:00
43,20:20:00
43,20:50:00